{
  "version": "1.0",
  "defaultProvider": "cdnjs",
  "libraries": [
    {
      "library": "font-awesome@5.11.2",
      "destination": "wwwroot/lib/font-awesome/"
    },
    {
      "library": "bootstrap-toggle@2.2.2",
      "destination": "wwwroot/lib/bootstrap-toggle/"
    }
  ]
}